{
    "id": "evt_ugB6x3K43D16wXCcqbplWAJo",
    "created": 1456453897,
    "livemode": true,
    "type": "charge.succeeded",
    "data": {
        "object": {
            "id": "ch_u1WX9SWXjbH4yTuTe5fz1mrD",
            "object": "charge",
            "created": 1427555076,
            "livemode": true,
            "paid": true,
            "refunded": false,
            "app": "app_bPyvX99erLuP1Wr5",
            "channel": "alipay",
            "order_no": "13",
            "client_ip": "127.0.0.1",
            "amount": 8920,
            "amount_settle": 0,
            "currency": "cny",
            "subject": "Your Subject",
            "body": "Your Body",
            "extra": {},
            "time_paid": 1427555076,
            "time_expire": 1456540297,
            "time_settle": null,
            "transaction_no": "1224524301201505066067849274",
            "refunds": {
                "object": "list",
                "url": "/v1/charges/ch_L8qn10mLmr1GS8e5OODmHaL4/refunds",
                "has_more": false,
                "data": []
            },
            "amount_refunded": 0,
            "failure_code": null,
            "failure_msg": null,
            "metadata": {},
            "credential": {},
            "description": null,
            "metadata": {
                "course": "2",
                "user": "23"
            }
        }
    },
    "object": "event",
    "pending_webhooks": 0,
    "request": "iar_qH4y1KbTy5eLGm1uHSTS00s"
}